[{ 
    "category": "ao_thun",
    "img": "assets/images/shirt-3.jpg",
    "title": "Striped T-shirt with smiley face embroidery",
    "old_price": 799000,
    "new_price":599000,
    "desc": "Sed ut perspiciatis unde omnis iste natus error sit volupta tem accusantium doloremque laudantium, totam rem ape riam, eaque ipsa quae ab illo inventore veritatis et quasi arc hitecto beatae vitae dicta sunt explicabo. Nemo enim ips a voluptatem quia voluptas sit...."
}]